{ 
    "questions":[
	
			{"item":"കേക്ക് ","name":"Cake","price":"150","img3":"100","img4":"50","img5":"0","img6":"50","img7":"20","img8":"0"},
			{"item":"ഐസ്ക്രീം ","name":"Icecream","price":"75","img3":"5","img4":"50","img5":"10","img6":"50","img7":"20","img8":"5"},
			{"item":"പാനീയം  ","name":"Drink","price":"15","img3":"10","img4":"5","img5":"0","img6":"20","img7":"5","img8":"0"},
			{"item":"വറ്റൽ ","name":"Chips","price":"45","img3":"20","img4":"10","img5":"5","img6":"20","img7":"5","img8":"20"},
			{"item":"കൂക്കീസ് ","name":"Cookies","price":"25","img3":"10","img4":"10","img5":"5","img6":"20","img7":"5","img8":"10"},
			{"item":"പമ്പരം ","name":"Top","price":"15","img3":"5","img4":"5","img5":"0","img6":"10","img7":"5","img8":"0"},
			{"item":"ക്ര്യോന്സ് ","name":"Crayons","price":"25","img3":"5","img4":"10","img5":"10","img6":"10","img7":"5","img8":"5"},
			{"item":"കുട ","name":"Umbrella","price":"250","img3":"100","img4":"50","img5":"100","img6":"100","img7":"100","img8":"20"},
			{"item":"ബോക്സ്‌ ","name":"PencilBox","price":"75","img3":"20","img4":"50","img5":"10","img6":"50","img7":"5","img8":"20"},
			{"item":"കഥ പുസ്തകം ","name":"Storybook","price":"100","img3":"50","img4":"50","img5":"0","img6":"50","img7":"100","img8":"0"}
			]		
}

