{"questions":[
                    {"que":"ഇവയിൽ പരന്ന ഇല ഏത്?","images":["lotusleaf","leaf1","leaf2","roseleaf"],"ans":"lotusleaf"},
                    {"que":"ഇവയിൽ പരന്നതും വീതിയുള്ളതുമായ ജീവിയെ കാണിച്ചു തരാമോ?","images":["snail","turtle","camaleon","frog"],"ans":"turtle"},
                    {"que":"ഇവയിൽ പരന്നതും വീതിയുള്ളതുമായ മത്സ്യം ഏത്?","images":["shell1","fish2","fish3","stingray"],"ans":"stingray"},
                    {"que":"ഇവയിൽ പരന്നതും വീതിയുള്ളതുമായ ചെവി ആരുടേതാണ്?","images":["ear","dogear","humanear","rabbitear"],"ans":"ear"},
                    {"que":"ഇവയിൽ പരന്നതും വീതിയുള്ളതും ഏതാണ്?","images":["rail","pen","flight","rope"],"ans":"flight"}
                  ]
}
