{"questions":[
		{"que":"ഇതിൽ ഏതാണ് നീല കാർ ?","images":["car1","car2","car4","car3"],"ans":"car4"},
		{"que":"നീല പക്ഷിയെ കാണിച്ചുതരാമോ?","images":["bird1","bird2","bird4","bird3"],"ans":"bird2"},
		{"que":"നീല കസേരയിൽ അമർത്തുക.","images":["chair4","chair2","chair3","chair1"],"ans":"chair1"},	
		{"que":"ഇതിൽ ഏതാണ് നീല തൂവൽ?","images":["feather1","feather2","feather3","feather4"],"ans":"feather3"},
		{"que":"ഉച്ച സമയത്തു കാണുന്ന ആകാശം ഇവയിൽ  ഏതാണ് ?","images":["sky3","sky4","sky1","sky2"],"ans":"sky1"}
]
}
