{"questions":[
                    {"que":"രോമങ്ങൾ ഉള്ള സസ്യ ഭാഗം ഇവയിൽ ഏതാണ്?","images":["bud","thorn","fruit","leaf"],"ans":"bud"},
                    {"que":"ഇവയിൽ രോമങ്ങൾ ഉള്ള ജീവി ഏത്?","images":["cat","fish","turtle","frog"],"ans":"cat"},
                    {"que":"ഇവയിൽ രോമങ്ങൾ ഉള്ള ജീവിയെ കാണിച്ചു തരാമോ?","images":["worm","crab","bug","snail"],"ans":"worm"},
                    {"que":"രോമം ഉള്ള ജീവി ഇവയിൽ ഏതാണ്?","images":["rhino","cow","crocodile","camaleon"],"ans":"cow"},
                    {"que":"രോമങ്ങൾ കാണപ്പെടുന്നത് ചുവടെയുള്ളവയിൽ ഏതിനാണ്?","images":["aloevera","mushroom1","grass","cactus"],"ans":"grass"}

                  ]
}
