{"questions": [
		{"que":"ഓവൽ ആകൃതിയിലുള്ള ഫലത്തെ കണ്ടുപിടിക്കാമോ?","images":["cherry","tomato","orange","watermelon"],"ans":"watermelon"},
  	{"que":"ഓവൽ ആകൃതിയിൽ അമർത്തുക.","images":["jackfruit","ball","star","marble"],"ans":"jackfruit"},
		{"que":"ഇതിൽ ഓവൽ ആകൃതിയിലുള്ള പ്രാണി ഏതാണ്?","images":["butterfly","grasshopper","ladybug","thumbi"],"ans":"ladybug"},
		{"que":"ഓവൽ ആകൃതിയിലുള്ള ഫലത്തെ കണ്ടുപിടിക്കാമോ?","images":["strawberry","guava","grapes","orange"],"ans":"grapes"},
		{"que":"ഓവൽ ആകൃതിയിൽ അമർത്തുക.","images":["chocolate","cupcake","badam","cashewnut"],"ans":"badam"}
	]
	}
