{ 
    "questions":[
	
			{"item":"വാഴപ്പഴം","name":"Banana","price":"5","img1":"5","img2":"50"},
			{"item":"ബിസ്കറ്റ് ","name":"Biscuit","price":"10","img1":"20","img2":"10"},
			{"item":"ഡയറിമില്ക്ക്  ","name":"Dairymilk","price":"10","img1":"10","img2":"20"},
			{"item":"പെൻസിൽ","name":"Pencil","price":"20","img1":"10","img2":"20"},
			{"item":"കളിപ്പാട്ടം ","name":"Car","price":"50","img1":"20","img2":"50"},
			{"item":"തൊപ്പി ","name":"Cap","price":"100","img1":"10","img2":"100"},
			{"item":"ബോൾ ","name":"Ball","price":"20","img1":"20","img2":"10"},
			{"item":"പേന ","name":"Pen","price":"5","img1":"5","img2":"50"},
			{"item":"ബലൂണ്‍ ","name":"Balloon","price":"50","img1":"5","img2":"50"},
			{"item":"കരടിക്കുട്ടി ","name":"Teddybear","price":"100","img1":"50","img2":"100"}
			]		
}

